%YAML 1.1
%TAG !u! tag:unity3d.com,2011:
--- !u!74 &7400000
AnimationClip:
  m_ObjectHideFlags: 0
  m_CorrespondingSourceObject: {fileID: 0}
  m_PrefabInstance: {fileID: 0}
  m_PrefabAsset: {fileID: 0}
  m_Name: A_Explotion
  serializedVersion: 6
  m_Legacy: 0
  m_Compressed: 0
  m_UseHighQualityCurve: 1
  m_RotationCurves: []
  m_CompressedRotationCurves: []
  m_EulerCurves: []
  m_PositionCurves: []
  m_ScaleCurves: []
  m_FloatCurves: []
  m_PPtrCurves:
  - curve:
    - time: 0
      value: {fileID: 5986030973748356752, guid: 46bbce0d429004a49ada782088df6260, type: 3}
    - time: 0.016666668
      value: {fileID: -5600206312213581617, guid: 46bbce0d429004a49ada782088df6260, type: 3}
    - time: 0.033333335
      value: {fileID: 3815954189206336483, guid: 46bbce0d429004a49ada782088df6260, type: 3}
    - time: 0.05
      value: {fileID: -49130668184793455, guid: 46bbce0d429004a49ada782088df6260, type: 3}
    - time: 0.06666667
      value: {fileID: -2330519403281856691, guid: 46bbce0d429004a49ada782088df6260, type: 3}
    - time: 0.1
      value: {fileID: 7788287979965792003, guid: 46bbce0d429004a49ada782088df6260, type: 3}
    - time: 0.11666667
      value: {fileID: 497560801652076451, guid: 46bbce0d429004a49ada782088df6260, type: 3}
    - time: 0.13333334
      value: {fileID: -222035745519106718, guid: 46bbce0d429004a49ada782088df6260, type: 3}
    - time: 0.15
      value: {fileID: -3806839202968226997, guid: 46bbce0d429004a49ada782088df6260, type: 3}
    - time: 0.16666667
      value: {fileID: 1213653969873606975, guid: 46bbce0d429004a49ada782088df6260, type: 3}
    attribute: m_Sprite
    path: 
    classID: 212
    script: {fileID: 0}
  m_SampleRate: 60
  m_WrapMode: 0
  m_Bounds:
    m_Center: {x: 0, y: 0, z: 0}
    m_Extent: {x: 0, y: 0, z: 0}
  m_ClipBindingConstant:
    genericBindings:
    - serializedVersion: 2
      path: 0
      attribute: 0
      script: {fileID: 0}
      typeID: 212
      customType: 23
      isPPtrCurve: 1
    pptrCurveMapping:
    - {fileID: 5986030973748356752, guid: 46bbce0d429004a49ada782088df6260, type: 3}
    - {fileID: -5600206312213581617, guid: 46bbce0d429004a49ada782088df6260, type: 3}
    - {fileID: 3815954189206336483, guid: 46bbce0d429004a49ada782088df6260, type: 3}
    - {fileID: -49130668184793455, guid: 46bbce0d429004a49ada782088df6260, type: 3}
    - {fileID: -2330519403281856691, guid: 46bbce0d429004a49ada782088df6260, type: 3}
    - {fileID: 7788287979965792003, guid: 46bbce0d429004a49ada782088df6260, type: 3}
    - {fileID: 497560801652076451, guid: 46bbce0d429004a49ada782088df6260, type: 3}
    - {fileID: -222035745519106718, guid: 46bbce0d429004a49ada782088df6260, type: 3}
    - {fileID: -3806839202968226997, guid: 46bbce0d429004a49ada782088df6260, type: 3}
    - {fileID: 1213653969873606975, guid: 46bbce0d429004a49ada782088df6260, type: 3}
  m_AnimationClipSettings:
    serializedVersion: 2
    m_AdditiveReferencePoseClip: {fileID: 0}
    m_AdditiveReferencePoseTime: 0
    m_StartTime: 0
    m_StopTime: 0.18333334
    m_OrientationOffsetY: 0
    m_Level: 0
    m_CycleOffset: 0
    m_HasAdditiveReferencePose: 0
    m_LoopTime: 0
    m_LoopBlend: 0
    m_LoopBlendOrientation: 0
    m_LoopBlendPositionY: 0
    m_LoopBlendPositionXZ: 0
    m_KeepOriginalOrientation: 0
    m_KeepOriginalPositionY: 1
    m_KeepOriginalPositionXZ: 0
    m_HeightFromFeet: 0
    m_Mirror: 0
  m_EditorCurves: []
  m_EulerEditorCurves: []
  m_HasGenericRootTransform: 0
  m_HasMotionFloatCurves: 0
  m_Events: []
